<deployment-project plugin="plugin.ezdeploy" plugin-version="1.0">
  <configuration file="/home/sam-mac/qaehs_code/compiled/DeconvLibrarySearch_v1.prj" location="/home/sam-mac/qaehs_code/compiled" name="DeconvLibrarySearch_v1" target="target.ezdeploy.library" target-name="Library Compiler">
    <param.appname>DeconvLibrarySearch_v1</param.appname>
    <param.icon />
    <param.icons />
    <param.version>1.0</param.version>
    <param.authnamewatermark />
    <param.email />
    <param.company />
    <param.summary />
    <param.description />
    <param.screenshot />
    <param.guid />
    <param.installpath.string>/DeconvLibrarySearch_v1/</param.installpath.string>
    <param.installpath.combo>option.installpath.user</param.installpath.combo>
    <param.logo />
    <param.install.notes>In the following directions, replace MR by the directory where MATLAB or the MATLAB Runtime is installed on the target machine.

(1) Set the environment variable XAPPLRESDIR to this value:

MR/v93/X11/app-defaults


(2) If the environment variable LD_LIBRARY_PATH is undefined, set it to the following:

MR/v93/runtime/glnxa64:MR/v93/bin/glnxa64:MR/v93/sys/os/glnxa64:MR/v93/sys/opengl/lib/glnxa64

If it is defined, set it to the following:

${LD_LIBRARY_PATH}:MR/v93/runtime/glnxa64:MR/v93/bin/glnxa64:MR/v93/sys/os/glnxa64:MR/v93/sys/opengl/lib/glnxa64</param.install.notes>
    <param.target.install.notes>You must have Python 2.7, 3.4, 3.5, and/or 3.6 on your machine to install this package. Go to the directory to which setup.py and your package have been written. Then execute:

        python setup.py install [options]

For details, see the readme.txt distributed with this package.</param.target.install.notes>
    <param.intermediate>${PROJECT_ROOT}/DeconvLibrarySearch_v1/for_testing</param.intermediate>
    <param.files.only>${PROJECT_ROOT}/DeconvLibrarySearch_v1/for_redistribution_files_only</param.files.only>
    <param.output>${PROJECT_ROOT}/DeconvLibrarySearch_v1/for_redistribution</param.output>
    <param.logdir>${PROJECT_ROOT}/DeconvLibrarySearch_v1</param.logdir>
    <param.enable.clean.build>false</param.enable.clean.build>
    <param.user.defined.mcr.options />
    <param.target.type>subtarget.python.module</param.target.type>
    <param.support.packages />
    <param.namespace />
    <param.classorg />
    <param.web.mcr>true</param.web.mcr>
    <param.package.mcr>false</param.package.mcr>
    <param.no.mcr>false</param.no.mcr>
    <param.web.mcr.name>MyAppInstaller_web</param.web.mcr.name>
    <param.package.mcr.name>MyAppInstaller_mcr</param.package.mcr.name>
    <param.no.mcr.name>MyAppInstaller_app</param.no.mcr.name>
    <param.windows.command.prompt>false</param.windows.command.prompt>
    <param.create.log>false</param.create.log>
    <param.log.file />
    <param.user.only.registration>false</param.user.only.registration>
    <param.assembly.type>false</param.assembly.type>
    <param.encryption.key.file />
    <param.net.enable.remoting>false</param.net.enable.remoting>
    <param.net.tsa.enable>false</param.net.tsa.enable>
    <param.net.tsa.assembly />
    <param.net.tsa.interface />
    <param.net.tsa.namespace />
    <param.net.tsa.superclass>Class1</param.net.tsa.superclass>
    <param.net.tsa.metadata />
    <param.net.tsa.metadata.assembly>/usr/local/MATLAB/R2017b/bin</param.net.tsa.metadata.assembly>
    <param.net.saved.interface />
    <unset>
      <param.icon />
      <param.icons />
      <param.version />
      <param.authnamewatermark />
      <param.email />
      <param.company />
      <param.summary />
      <param.description />
      <param.screenshot />
      <param.guid />
      <param.installpath.string />
      <param.installpath.combo />
      <param.logo />
      <param.intermediate />
      <param.files.only />
      <param.output />
      <param.logdir />
      <param.enable.clean.build />
      <param.user.defined.mcr.options />
      <param.support.packages />
      <param.namespace />
      <param.classorg />
      <param.web.mcr />
      <param.package.mcr />
      <param.no.mcr />
      <param.web.mcr.name />
      <param.package.mcr.name />
      <param.no.mcr.name />
      <param.windows.command.prompt />
      <param.create.log />
      <param.log.file />
      <param.user.only.registration />
      <param.assembly.type />
      <param.encryption.key.file />
      <param.net.enable.remoting />
      <param.net.tsa.enable />
      <param.net.tsa.assembly />
      <param.net.tsa.interface />
      <param.net.tsa.namespace />
      <param.net.tsa.superclass />
      <param.net.tsa.metadata />
      <param.net.tsa.metadata.assembly />
      <param.net.saved.interface />
    </unset>
    <fileset.exports>
      <file>/home/sam-mac/qaehs_code/matlab_functions/DeconvLibrarySearch_v1.m</file>
    </fileset.exports>
    <fileset.classes>
      <entity.package name="">
        <entity.class name="Class1">
          <file>/home/sam-mac/qaehs_code/matlab_functions/DeconvLibrarySearch_v1.m</file>
        </entity.class>
      </entity.package>
    </fileset.classes>
    <fileset.resources />
    <fileset.depfun>
      <file>/home/sam-mac/qaehs_code/matlab_functions/Frag_extractor_v1.m</file>
      <file>/home/sam-mac/qaehs_code/matlab_functions/Lib_search.m</file>
      <file>/home/sam-mac/qaehs_code/matlab_functions/Match_factor_calc.m</file>
      <file>/home/sam-mac/qaehs_code/matlab_functions/centroiding_MS_data.m</file>
      <file>/home/sam-mac/qaehs_code/matlab_functions/comp_extractor_SSA_v2.m</file>
      <file>/home/sam-mac/qaehs_code/matlab_functions/corr_matrix.m</file>
      <file>/home/sam-mac/qaehs_code/matlab_functions/ion_count.m</file>
      <file>/home/sam-mac/qaehs_code/matlab_functions/library_search.m</file>
      <file>/home/sam-mac/qaehs_code/matlab_functions/netCDF_import.m</file>
    </fileset.depfun>
    <fileset.package />
    <build-deliverables>
      <file location="${PROJECT_ROOT}/DeconvLibrarySearch_v1/for_testing" name="setup.py" optional="false">/home/sam-mac/qaehs_code/compiled/DeconvLibrarySearch_v1/for_testing/setup.py</file>
      <file location="${PROJECT_ROOT}/DeconvLibrarySearch_v1/for_testing" name="DeconvLibrarySearch_v1" optional="false">/home/sam-mac/qaehs_code/compiled/DeconvLibrarySearch_v1/for_testing/DeconvLibrarySearch_v1</file>
      <file location="${PROJECT_ROOT}/DeconvLibrarySearch_v1/for_testing" name="readme.txt" optional="true">/home/sam-mac/qaehs_code/compiled/DeconvLibrarySearch_v1/for_testing/readme.txt</file>
    </build-deliverables>
    <workflow />
    <matlab>
      <root>/usr/local/MATLAB/R2017b</root>
      <toolboxes />
    </matlab>
    <platform>
      <unix>true</unix>
      <mac>false</mac>
      <windows>false</windows>
      <win2k>false</win2k>
      <winxp>false</winxp>
      <vista>false</vista>
      <linux>true</linux>
      <solaris>false</solaris>
      <osver>4.13.0-45-generic</osver>
      <os32>false</os32>
      <os64>true</os64>
      <arch>glnxa64</arch>
      <matlab>true</matlab>
    </platform>
  </configuration>
</deployment-project>